{
  "npmScope": "shape-season",
  "implicitDependencies": {
    "angular.json": "*",
    "package.json": {
      "dependencies": "*",
      "devDependencies": "*"
    },
    "tsconfig.json": "*",
    "tslint.json": "*",
    "nx.json": "*"
  },
  "tasksRunnerOptions": {
    "default": {
      "runner": "@nrwl/workspace/tasks-runners/default",
      "options": {
        "cacheableOperations": [
          "build",
          "lint",
          "test",
          "e2e"
        ]
      }
    }
  },
  "projects": {
    "document-services": {
      "tags": []
    },
    "document-shapes": {
      "tags": []
    },
    "shared-enums": {
      "tags": []
    },
    "student": {
      "tags": []
    },
    "student-e2e": {
      "tags": [],
      "implicitDependencies": [
        "student"
      ]
    }
  }
}
